{
    "model_name": "cnn_tri_Trim_Move_Injection_PV_59521_ref_voltage",
    "data_csv_path": "C:\\Users\\jwulff\\cernbox\\workspaces\\RL-007-RFinPS\\optimising-rf-manipulations-in-the-ps-through-rl\\dataset\\tri\\ref_voltage\\dataset_tri_59521_ref.csv",
    "batch_size": 10,
    "log_dir": "C:\\Users\\jwulff\\cernbox\\workspaces\\RL-007-RFinPS\\optimising-rf-manipulations-in-the-ps-through-rl\\tensorboard_logs",
    "input_type": "image",
    "model": "cnn_tri",
    "tri_fixed_voltage": false,
    "rf_manip": "tri",
    "start_epoch": 0,
    "end_epoch": 50,
    "optimizer": "adam",
    "add_noise": true,
    "move_injection": true,
    "opt_lr": 0.001,
    "adam_b1": 0.9,
    "adam_b2": 0.999,
    "resize_data": false,
    "use_live_data": false,
    "load_model": false,
    "load_model_path": "C:\\Users\\jwulff\\cernbox\\workspaces\\RL-007-RFinPS\\optimising-rf-manipulations-in-the-ps-through-rl\\saved_models\\cnn_quad_ms_ADD_NOISE_Move_injectionApr_28_2022_12-28-32_e29_continue__e46.pth",
    "test_logging": false,
    "norm_labels": false,
    "tanh": false,
    "trim_edges": true
}